<svg xmlns="http://www.w3.org/2000/svg" width="70" height="70" viewBox="0 0 70 70">
  <g id="Grupo_5" data-name="Grupo 5" transform="translate(-472.82 -1171.463)">
    <g id="Grupo_2" data-name="Grupo 2" transform="translate(480.382 1191.986)">
      <g id="Grupo_1" data-name="Grupo 1" transform="translate(0 0)">
        <path id="Trazado_1" data-name="Trazado 1" d="M531.155,1343.268v-13.481h2.873v13.481Z" transform="translate(-531.155 -1329.787)" fill="#205ba4"/>
        <path id="Trazado_2" data-name="Trazado 2" d="M572.674,1329.787h5.205a6.864,6.864,0,0,1,2.55.331,2.823,2.823,0,0,1,1.243,1.168,3.793,3.793,0,0,1,.072,3.655,2.844,2.844,0,0,1-1.127,1.163,2.984,2.984,0,0,1,1.538,1.2,3.67,3.67,0,0,1,.556,2.06,4.243,4.243,0,0,1-.708,2.487,2.906,2.906,0,0,1-1.674,1.255,17.324,17.324,0,0,1-3.117.166h-4.539Zm2.744,2.244v3.117h1.341a16.3,16.3,0,0,0,1.637-.046,1.4,1.4,0,0,0,.892-.483,1.62,1.62,0,0,0,.322-1.062,1.652,1.652,0,0,0-.262-.97,1.1,1.1,0,0,0-.635-.464,13.546,13.546,0,0,0-2.138-.092Zm0,5.361v3.6h1.814a6.486,6.486,0,0,0,1.75-.142,1.3,1.3,0,0,0,.649-.56,2.255,2.255,0,0,0-.018-2.146,1.438,1.438,0,0,0-.746-.587,7.11,7.11,0,0,0-1.9-.16Z" transform="translate(-567.292 -1329.787)" fill="#205ba4"/>
        <path id="Trazado_3" data-name="Trazado 3" d="M666.794,1343.268v-13.481h2.78v13.481Z" transform="translate(-649.211 -1329.787)" fill="#205ba4"/>
        <path id="Trazado_4" data-name="Trazado 4" d="M703.642,1343.268v-1.746l6.655-9.454h-6.655v-2.281h9.974v1.635l-6.609,9.566h6.609v2.28Z" transform="translate(-681.283 -1329.787)" fill="#205ba4"/>
        <path id="Trazado_5" data-name="Trazado 5" d="M799.311,1343.127l-2.9-.01-.847-2.718h-4.894l-.935,2.868h-2.9l5.05-13.481h2.364Zm-4.529-4.879-1.737-5.031-1.692,5.031Z" transform="translate(-753.69 -1329.787)" fill="#205ba4"/>
      </g>
    </g>
    <g id="Grupo_4" data-name="Grupo 4" transform="translate(479.921 1211.256)">
      <g id="Grupo_3" data-name="Grupo 3">
        <path id="Trazado_6" data-name="Trazado 6" d="M527.6,1488.242v-8.665h3.055a7.6,7.6,0,0,1,2,.312,2.052,2.052,0,0,1,1.113.859,2.5,2.5,0,0,1,.458,1.5,3.62,3.62,0,0,1-.355,1.677,2.71,2.71,0,0,1-1.088.974,5,5,0,0,1-1.933.306h-1.509v3.037Zm1.746-7.2v2.7h1.277a3.462,3.462,0,0,0,1.087-.113.969.969,0,0,0,.471-.406,2.3,2.3,0,0,0,.184-.952,1.325,1.325,0,0,0-.19-.729.938.938,0,0,0-.468-.4,4.289,4.289,0,0,0-1.179-.1Z" transform="translate(-527.6 -1479.429)" fill="#30b7e2"/>
        <path id="Trazado_7" data-name="Trazado 7" d="M589.842,1488.242v-8.665h1.751v8.665Z" transform="translate(-581.774 -1479.429)" fill="#30b7e2"/>
        <path id="Trazado_8" data-name="Trazado 8" d="M612.728,1484.554l1.813.013a1.547,1.547,0,0,0,1.8,1.448,1.523,1.523,0,0,0,1.062-.362c.287-.226.28-.447.28-.782a.754.754,0,0,0-.187-.467,1.4,1.4,0,0,0-.525-.385,5.28,5.28,0,0,0-1.272-.513,5.416,5.416,0,0,1-1.569-.658,2.376,2.376,0,0,1-.782-.853,2.325,2.325,0,0,1-.29-1.137,2.273,2.273,0,0,1,.372-1.276,2.317,2.317,0,0,1,1.028-.856,4.007,4.007,0,0,1,1.618-.289,4.131,4.131,0,0,1,2.492.68,2.743,2.743,0,0,1,.86,2.041l-1.659-.02a1.672,1.672,0,0,0-.624-1.015,1.94,1.94,0,0,0-1.111-.238,1.184,1.184,0,0,0-.826.238.947.947,0,0,0-.327.758,1.256,1.256,0,0,0,.478.77,2.424,2.424,0,0,0,1.143.49,5.592,5.592,0,0,1,1.692.688,2.268,2.268,0,0,1,.887.817,1.891,1.891,0,0,1,.346,1.086,2.344,2.344,0,0,1-.661,1.866,3.4,3.4,0,0,1-2.462.8C614.3,1487.4,612.956,1486.536,612.728,1484.554Z" transform="translate(-601.693 -1478.437)" fill="#30b7e2"/>
        <path id="Trazado_9" data-name="Trazado 9" d="M890.648,1484.554l1.813.013a1.547,1.547,0,0,0,1.8,1.448,1.523,1.523,0,0,0,1.062-.362c.287-.226.28-.447.28-.782a.754.754,0,0,0-.187-.467,1.4,1.4,0,0,0-.525-.385,5.281,5.281,0,0,0-1.272-.513,5.417,5.417,0,0,1-1.569-.658,2.376,2.376,0,0,1-.782-.853,2.325,2.325,0,0,1-.29-1.137,2.274,2.274,0,0,1,.372-1.276,2.317,2.317,0,0,1,1.028-.856,4.006,4.006,0,0,1,1.618-.289,4.131,4.131,0,0,1,2.492.68,2.742,2.742,0,0,1,.86,2.041l-1.659-.02a1.673,1.673,0,0,0-.624-1.015,1.94,1.94,0,0,0-1.111-.238,1.184,1.184,0,0,0-.826.238.947.947,0,0,0-.327.758,1.256,1.256,0,0,0,.478.77,2.425,2.425,0,0,0,1.143.49,5.593,5.593,0,0,1,1.692.688,2.268,2.268,0,0,1,.887.817,1.89,1.89,0,0,1,.346,1.086,2.344,2.344,0,0,1-.661,1.866,3.4,3.4,0,0,1-2.462.8C892.216,1487.4,890.876,1486.536,890.648,1484.554Z" transform="translate(-843.586 -1478.437)" fill="#30b7e2"/>
        <path id="Trazado_10" data-name="Trazado 10" d="M677.43,1484.381l1.762-.035a3.01,3.01,0,0,1-1.238,2.38,3.673,3.673,0,0,1-4.708-.4,4.733,4.733,0,0,1-1.136-3.334,4.954,4.954,0,0,1,1.144-3.469,3.448,3.448,0,0,1,2.674-1.088,3.326,3.326,0,0,1,2.288.816,3.15,3.15,0,0,1,.975,2.282l-1.738-.012a2.16,2.16,0,0,0-.519-1.215,1.686,1.686,0,0,0-1.094-.375,1.823,1.823,0,0,0-1.471.686,3.555,3.555,0,0,0-.569,2.264,3.773,3.773,0,0,0,.555,2.329,1.761,1.761,0,0,0,1.441.692,1.593,1.593,0,0,0,1.123-.44C677.235,1485.168,677.29,1485.02,677.43,1484.381Z" transform="translate(-653.377 -1478.437)" fill="#30b7e2"/>
        <path id="Trazado_11" data-name="Trazado 11" d="M736.253,1487.945v-8.818h1.94v8.818Z" transform="translate(-709.205 -1479.038)" fill="#30b7e2"/>
        <path id="Trazado_12" data-name="Trazado 12" d="M763.28,1488.242v-8.665h1.752l3.592,5.786v-5.786h1.738v8.665H768.55l-3.474-5.651v5.651Z" transform="translate(-732.729 -1479.429)" fill="#30b7e2"/>
        <path id="Trazado_13" data-name="Trazado 13" d="M833.543,1488.242h-1.82l-.607-1.725H827.9l-.607,1.725h-1.82l3.131-8.665h1.719Zm-2.917-3.16-1.12-3.306-1.027,3.306Z" transform="translate(-786.857 -1479.429)" fill="#30b7e2"/>
      </g>
    </g>
    <path id="Trazado_14" data-name="Trazado 14" d="M577.769,1593.579a5.3,5.3,0,0,1-3.371-1.258l-1.5-1.231a2.809,2.809,0,0,0-3.517-.047l-1.584,1.228a5.568,5.568,0,0,1-6.99-.161l-1.051-.895a2.823,2.823,0,0,0-3.607-.042l-1.209.981a5.551,5.551,0,0,1-7.067-.067l-1.095-.923a2.833,2.833,0,0,0-3.565-.059l-1.665,1.311a5.42,5.42,0,0,1-6.309.213,5.3,5.3,0,0,1-1.125-1.04,2.555,2.555,0,0,0-2.171-1.182h-.012a1.361,1.361,0,0,1,0-2.722h.015a5.175,5.175,0,0,1,4.208,2.1,3.666,3.666,0,0,0,.538.542,2.717,2.717,0,0,0,3.175-.048l1.665-1.311a5.565,5.565,0,0,1,7,.117l1.095.923a2.825,2.825,0,0,0,3.6.034l1.209-.981a5.546,5.546,0,0,1,7.087.083l1.051.895a2.834,2.834,0,0,0,3.558.082l1.584-1.227a5.518,5.518,0,0,1,6.909.093l1.5,1.231a2.453,2.453,0,0,0,3.011.219c.577-.661,2.6-2.75,5.1-2.75h.009a1.361,1.361,0,0,1,0,2.722h-.006c-1.286,0-2.7,1.38-3.134,1.913l-.119.146-.157.111A5.321,5.321,0,0,1,577.769,1593.579Z" transform="translate(-50.26 -362.265)" fill="#205ba4"/>
    <path id="Trazado_15" data-name="Trazado 15" d="M539.19,1175.093v62.741H476.45v-62.741H539.19m1.576-3.63H474.873a2.053,2.053,0,0,0-2.053,2.053v65.893a2.053,2.053,0,0,0,2.053,2.053h65.893a2.053,2.053,0,0,0,2.053-2.053v-65.893a2.053,2.053,0,0,0-2.053-2.053Z" transform="translate(0)" fill="#205ba4"/>
  </g>
</svg>
