<svg xmlns="http://www.w3.org/2000/svg" xmlns:xlink="http://www.w3.org/1999/xlink" width="669" height="305" viewBox="0 0 669 305">
  <defs>
    <clipPath id="clip-path">
      <rect id="Rectángulo_33" data-name="Rectángulo 33" width="669" height="305" transform="translate(1251 2356)" fill="#fff"/>
    </clipPath>
    <linearGradient id="linear-gradient" x1="0.5" x2="0.5" y2="1" gradientUnits="objectBoundingBox">
      <stop offset="0" stop-color="#fff"/>
      <stop offset="1" stop-color="#fff" stop-opacity="0"/>
    </linearGradient>
  </defs>
  <g id="Enmascarar_grupo_3" data-name="Enmascarar grupo 3" transform="translate(-1251 -2356)" clip-path="url(#clip-path)">
    <g id="Grupo_21" data-name="Grupo 21" transform="translate(-231.841 1035.797)" opacity="0.19">
      <g id="Grupo_9" data-name="Grupo 9" transform="translate(1468.663 1344.732)" opacity="0.11">
        <path id="Trazado_20" data-name="Trazado 20" d="M541.066,1598.184c30.188-.071,37,21.973,49.133,29.617,17.442,10.983,40.052,12.365,57.772-1.592l20.282-15.973a50.968,50.968,0,0,1,64.387,1.076l13.338,11.245a50.964,50.964,0,0,0,64.965.616l14.726-11.949a50.965,50.965,0,0,1,65.149.768l12.805,10.9a50.966,50.966,0,0,0,64.257,1.476l19.3-14.953a50.962,50.962,0,0,1,63.517.856l18.316,15c17.661,14.465,39.63,15.418,58.342,2.336,0,0,23.828-29.483,51.119-29.427" transform="translate(-344.362 -1479.472)" fill="none" stroke="#39dcff" stroke-linecap="round" stroke-miterlimit="10" stroke-width="13"/>
        <path id="Trazado_22" data-name="Trazado 22" d="M541.066,1598.184c19.492-.046,23.888,14.188,31.725,19.124,11.262,7.092,25.862,7.984,37.3-1.028l13.1-10.313a32.91,32.91,0,0,1,41.575.695l8.613,7.261a32.908,32.908,0,0,0,41.948.4l9.509-7.715a32.908,32.908,0,0,1,42.067.5l8.268,7.038a32.909,32.909,0,0,0,41.491.953l12.459-9.656a32.907,32.907,0,0,1,41.013.553l11.827,9.688c11.4,9.34,25.59,9.956,37.672,1.508,0,0,15.386-19.037,33.008-19" transform="translate(-198.327 -1598.184)" fill="none" stroke="#1e3046" stroke-linecap="round" stroke-miterlimit="10" stroke-width="13"/>
        <path id="Trazado_24" data-name="Trazado 24" d="M541.066,1598.184c29.187-.069,35.769,21.244,47.5,28.635,16.864,10.619,38.724,11.954,55.857-1.539l19.61-15.443a49.279,49.279,0,0,1,62.252,1.041l12.9,10.873a49.275,49.275,0,0,0,62.811.6l14.238-11.553a49.275,49.275,0,0,1,62.989.743l12.38,10.539a49.278,49.278,0,0,0,62.127,1.427l18.656-14.458a49.274,49.274,0,0,1,61.411.828l17.708,14.506c17.076,13.985,38.317,14.907,56.407,2.259,0,0,23.038-28.506,49.424-28.452" transform="translate(-389.626 -1545.423)" fill="none" stroke="#30b7e2" stroke-linecap="round" stroke-miterlimit="10" stroke-width="13"/>
        <path id="Trazado_21" data-name="Trazado 21" d="M541.066,1598.184c35.724-.084,43.781,26,58.145,35.049,20.641,13,47.4,14.633,68.369-1.883l24-18.9a60.315,60.315,0,0,1,76.2,1.274l15.785,13.308a60.311,60.311,0,0,0,76.881.729l17.427-14.141a60.312,60.312,0,0,1,77.1.909l15.154,12.9a60.313,60.313,0,0,0,76.043,1.747l22.835-17.7a60.31,60.31,0,0,1,75.167,1.013l21.675,17.756c20.9,17.117,46.9,18.246,69.043,2.765,0,0,28.2-34.891,60.495-34.825" transform="translate(-541.066 -1413.521)" fill="none" stroke="#1e3046" stroke-linecap="round" stroke-miterlimit="10" stroke-width="13"/>
        <path id="Trazado_25" data-name="Trazado 25" d="M541.066,1598.184c30.188-.071,37,21.973,49.133,29.617,17.442,10.983,40.052,12.365,57.772-1.592l20.282-15.973a50.968,50.968,0,0,1,64.387,1.076l13.338,11.245a50.964,50.964,0,0,0,64.965.616l14.726-11.949a50.965,50.965,0,0,1,65.149.768l12.805,10.9a50.966,50.966,0,0,0,64.257,1.476l19.3-14.953a50.962,50.962,0,0,1,63.517.856l18.316,15c17.661,14.465,39.63,15.418,58.342,2.336,0,0,23.828-29.483,51.119-29.427" transform="translate(-344.362 -1222.264)" fill="none" stroke="#30b7e2" stroke-linecap="round" stroke-miterlimit="10" stroke-width="13"/>
        <path id="Trazado_26" data-name="Trazado 26" d="M541.066,1598.184c19.492-.046,23.888,14.188,31.725,19.124,11.262,7.092,25.862,7.984,37.3-1.028l13.1-10.313a32.91,32.91,0,0,1,41.575.695l8.613,7.261a32.908,32.908,0,0,0,41.948.4l9.509-7.715a32.908,32.908,0,0,1,42.067.5l8.268,7.038a32.909,32.909,0,0,0,41.491.953l12.459-9.656a32.907,32.907,0,0,1,41.013.553l11.827,9.688c11.4,9.34,25.59,9.956,37.672,1.508,0,0,15.386-19.037,33.008-19" transform="translate(-198.327 -1339.326)" fill="none" stroke="#30b7e2" stroke-linecap="round" stroke-miterlimit="10" stroke-width="13"/>
        <path id="Trazado_27" data-name="Trazado 27" d="M541.066,1598.184c29.187-.069,35.769,21.244,47.5,28.635,16.864,10.619,38.724,11.954,55.857-1.539l19.61-15.443a49.279,49.279,0,0,1,62.252,1.041l12.9,10.873a49.275,49.275,0,0,0,62.811.6l14.238-11.553a49.275,49.275,0,0,1,62.989.743l12.38,10.539a49.278,49.278,0,0,0,62.127,1.427l18.656-14.458a49.274,49.274,0,0,1,61.411.828l17.708,14.506c17.076,13.985,38.317,14.907,56.407,2.259,0,0,23.038-28.506,49.424-28.452" transform="translate(-389.626 -1286.565)" fill="none" stroke="#39dcff" stroke-linecap="round" stroke-miterlimit="10" stroke-width="13"/>
        <path id="Trazado_28" data-name="Trazado 28" d="M541.066,1598.184c35.724-.084,43.781,26,58.145,35.049,20.641,13,47.4,14.633,68.369-1.883l24-18.9a60.315,60.315,0,0,1,76.2,1.274l15.785,13.308a60.311,60.311,0,0,0,76.881.729l17.427-14.141a60.312,60.312,0,0,1,77.1.909l15.154,12.9a60.313,60.313,0,0,0,76.043,1.747l22.835-17.7a60.31,60.31,0,0,1,75.167,1.013l21.675,17.756c20.9,17.117,46.9,18.246,69.043,2.765,0,0,28.2-34.891,60.495-34.825" transform="translate(-198.327 -1154.664)" fill="none" stroke="#1e3046" stroke-linecap="round" stroke-miterlimit="10" stroke-width="13"/>
      </g>
      <rect id="Rectángulo_7" data-name="Rectángulo 7" width="537.5" height="769.977" transform="translate(1453 1857.5) rotate(-90)" fill="url(#linear-gradient)"/>
    </g>
  </g>
</svg>
