<svg xmlns="http://www.w3.org/2000/svg" width="89.109" height="7.568" viewBox="0 0 89.109 7.568">
  <path id="Trazado_434" data-name="Trazado 434" d="M541.066,1598.183c4.125-.01,5.056,3,6.714,4.047a6.743,6.743,0,0,0,7.895-.218l2.772-2.182a6.965,6.965,0,0,1,8.8.147l1.823,1.537a6.965,6.965,0,0,0,8.878.084l2.012-1.633a6.965,6.965,0,0,1,8.9.1l1.75,1.49a6.965,6.965,0,0,0,8.781.2l2.637-2.043a6.965,6.965,0,0,1,8.68.117l2.5,2.05a6.34,6.34,0,0,0,7.973.32s3.256-4.029,6.986-4.022" transform="translate(-540.063 -1597.016)" fill="none" stroke="#ffae23" stroke-linecap="round" stroke-miterlimit="10" stroke-width="2"/>
</svg>
